Data Programming – {{}}
…
You have been introduced to a number of R functions that have been wonderfully helpful in allowing you to write concise code. However, you may sometimes find yourself wanting a new function that doesn’t yet exist. It may be because you have to repeat a task very specific to your work, or because no one else has taken the time to write a function that solves a common problem.

This session, I will introduce programming in R to you. You will be able to write your own R functions that will help keep your code concise and robust. I will also point you towards some resources that will help you write your own R package so you can share your code with others.

Let’s get started!

A common problem

Good R code is concise and robust. But sometimes we need to perform the same task across many different data frames or numbers.

For example, let’s return to our data on the weather at NYC airports:

weather

# A tibble: 26,115 × 15
   origin  year month   day  hour  temp  dewp humid wind_dir wind_speed
   <chr>  <int> <int> <int> <int> <dbl> <dbl> <dbl>    <dbl>      <dbl>
 1 EWR     2013     1     1     1  39.0  26.1  59.4      270      10.4 
 2 EWR     2013     1     1     2  39.0  27.0  61.6      250       8.06
 3 EWR     2013     1     1     3  39.0  28.0  64.4      240      11.5 
 4 EWR     2013     1     1     4  39.9  28.0  62.2      250      12.7 
 5 EWR     2013     1     1     5  39.0  28.0  64.4      260      12.7 
 6 EWR     2013     1     1     6  37.9  28.0  67.2      240      11.5 
 7 EWR     2013     1     1     7  39.0  28.0  64.4      240      15.0 
 8 EWR     2013     1     1     8  39.9  28.0  62.2      250      10.4 
 9 EWR     2013     1     1     9  39.9  28.0  62.2      260      15.0 
10 EWR     2013     1     1    10  41    28.0  59.6      260      13.8 
# ℹ 26,105 more rows
# ℹ 5 more variables: wind_gust <dbl>, precip <dbl>, pressure <dbl>,
#   visib <dbl>, time_hour <dttm>

This data frame includes information about the temperature at each airport. It is recorded in degrees Fahrenheit. I - as an Australian - don’t know what to do with these huge numbers! I need to convert them to the much more sensible degrees Celsius so I can understand them better. The conversion from Fahrenheit to Celsius is done according to this formula:

\[
C = \frac{F - 32}{\frac{9}{5}}
\]

So, to convert each temperature data point from F to C, I could do the following:

transmute(weather, origin, time_hour, temp_f = temp, temp_c = (temp - 32) / (9/5))

# A tibble: 26,115 × 4
   origin time_hour           temp_f temp_c
   <chr>  <dttm>               <dbl>  <dbl>
 1 EWR    2013-01-01 01:00:00   39.0    3.9
 2 EWR    2013-01-01 02:00:00   39.0    3.9
 3 EWR    2013-01-01 03:00:00   39.0    3.9
 4 EWR    2013-01-01 04:00:00   39.9    4.4
 5 EWR    2013-01-01 05:00:00   39.0    3.9
 6 EWR    2013-01-01 06:00:00   37.9    3.3
 7 EWR    2013-01-01 07:00:00   39.0    3.9
 8 EWR    2013-01-01 08:00:00   39.9    4.4
 9 EWR    2013-01-01 09:00:00   39.9    4.4
10 EWR    2013-01-01 10:00:00   41      5  
# ℹ 26,105 more rows
…
[1] 0

f_to_c(100)

[1] 37.77778

f_to_c(50)

[1] 10

Looking good! Now, let’s apply it to our data:

transmute(weather, origin, time_hour, temp_f = temp, temp_c = f_to_c(temp))

# A tibble: 26,115 × 4
   origin time_hour           temp_f temp_c
   <chr>  <dttm>               <dbl>  <dbl>
 1 EWR    2013-01-01 01:00:00   39.0    3.9
 2 EWR    2013-01-01 02:00:00   39.0    3.9
 3 EWR    2013-01-01 03:00:00   39.0    3.9
 4 EWR    2013-01-01 04:00:00   39.9    4.4
 5 EWR    2013-01-01 05:00:00   39.0    3.9
 6 EWR    2013-01-01 06:00:00   37.9    3.3
 7 EWR    2013-01-01 07:00:00   39.0    3.9
 8 EWR    2013-01-01 08:00:00   39.9    4.4
 9 EWR    2013-01-01 09:00:00   39.9    4.4
10 EWR    2013-01-01 10:00:00   41      5  
# ℹ 26,105 more rows
…
