Probability – {{}}
…
So, your task is to find the Bernoulli distribution of this coin. In other words, how likely are you to flip heads and how likely are you to flip tails?

Note

Because the probability of all possible outcomes needs to add up to one (see axiom number two) and we only have two possible outcomes, you can choose one outcome (heads or tails), record the number of times that outcome occurs, and divide it by the number of trials you run (coin flips). You can then subtract that probability from one to get the probability of the other outcome.

We are going to flip our coin one million times (thankfully R can do this very quickly). Each time we flip the coin, we will record its outcome (heads or tails). At the end, we will have conducted our very large number of trials and should have a good frequentist approximation of the true Bernoulli distribution of our coin.

results <- tibble(trial = 1:1e6,
                  outcome = flip_coin(1e6))

results

# A tibble: 1,000,000 × 2
   trial outcome
   <int> <chr>  
 1     1 HEADS  
 2     2 HEADS  
 3     3 TAILS  
 4     4 HEADS  
 5     5 HEADS  
 6     6 HEADS  
 7     7 HEADS  
 8     8 HEADS  
 9     9 HEADS  
10    10 TAILS  
# ℹ 999,990 more rows
…
  return(result)
  
}

results <- tibble(trial = 1:1000) |> 
  rowwise() |> 
  mutate(prop_heads = run_n_trials(10000)) |> 
  ungroup()

results

# A tibble: 1,000 × 2
   trial prop_heads
   <int>      <dbl>
 1     1      0.495
 2     2      0.494
 3     3      0.501
 4     4      0.498
 5     5      0.496
 6     6      0.494
 7     7      0.506
 8     8      0.504
 9     9      0.495
10    10      0.493
# ℹ 990 more rows
…
So, how do we get from our coin flips to this very useful standard Normal distribution? We need to shift our center (mean) from whatever it is to zero and truncate or distribute the spread of our values around that center so they fall within a variance of one. The function to do this is:

\[
z = \frac{X - \mu}{\sigma}
\]

Where \(\mu\) is the mean (or center of your original Normal distribution) and \(\sigma\) is its standard deviation.

Returning to the results of our many coin flips, we can calculate the mean and standard deviation using R.

Here are the results of our 1,000 trials of 10,000 coin flips:

results

# A tibble: 1,000 × 2
   trial prop_heads
   <int>      <dbl>
 1     1      0.495
 2     2      0.494
 3     3      0.501
 4     4      0.498
 5     5      0.496
 6     6      0.494
 7     7      0.506
 8     8      0.504
 9     9      0.495
10    10      0.493
# ℹ 990 more rows
…
The standard deviation is:

coin_sd <- sd(results$prop_heads)
coin_sd

[1] 0.005008006

So we can standardize our 1,000 trial statistics using the above formula:

standard_results <- results |> 
  mutate(standard_prop_heads = (prop_heads - coin_mean) / coin_sd)

standard_results

# A tibble: 1,000 × 3
   trial prop_heads standard_prop_heads
   <int>      <dbl>               <dbl>
 1     1      0.495              -1.07 
 2     2      0.494              -1.15 
 3     3      0.501               0.253
 4     4      0.498              -0.346
 5     5      0.496              -0.786
 6     6      0.494              -1.26 
 7     7      0.506               1.21 
 8     8      0.504               0.872
 9     9      0.495              -1.07 
10    10      0.493              -1.32 
# ℹ 990 more rows
…
coin_flip <- function(possible_outcomes, n) {
  
  outcomes <- sample(possible_outcomes, size = n, replace = T, prob = c(0.5, 0.5))
  
  return(table(outcomes)["HEADS"])
  
}

results <- tibble(trial = 1:1e6) |> 
  rowwise() |> 
  mutate(n_heads = coin_flip(possible_outcomes, 100))

results

# A tibble: 1,000,000 × 2
# Rowwise: 
   trial n_heads
   <int>   <int>
 1     1      51
 2     2      51
 3     3      43
 4     4      44
 5     5      46
 6     6      46
 7     7      49
 8     8      57
 9     9      55
10    10      52
# ℹ 999,990 more rows
…
  slice_sample(df, n = n) |> 
    tabyl(dem) |> 
    filter(dem == "Democrat") |> 
    pull(percent)
  
}

nes_samples_1000 <- tibble(survey = 1:1000) |> 
  rowwise() |> 
  mutate(prop_dem = dem_survey(select(nes, respondent_id, dem), 3000)) |> 
  ungroup()

nes_samples_1000

# A tibble: 1,000 × 2
   survey prop_dem
    <int>    <dbl>
 1      1    0.235
 2      2    0.217
 3      3    0.218
 4      4    0.219
 5      5    0.236
 6      6    0.228
 7      7    0.232
 8      8    0.230
 9      9    0.224
10     10    0.228
# ℹ 990 more rows
…
