Measuring Uncertainty – {{}}
…
Let’s explore the relationship between disposal efficiency and Dream Team points. Your disposal efficiency describes the percentage of your disposals of the ball (kicks, handballs, etc.) that lead to a positive outcome for your team. The Dream Team is a popular fantasy football competition. Each player gets points for various actions they take on the field. For example, you get six Dream Team points for scoring a goal and you lose three points for having a free kick awarded against you. This is a useful proxy measure of a player’s effectiveness on the field.

Loading in our data

We are going to explore some different player-level outcomes from the 10th round of the most recent AFLW season. This is the last round played before finals. First, we need to collect our data. fitzRoy::fetch_player_stats() retrieves some useful variables about each player from the official AFL website.

afl_df <- fetch_player_stats(2024, round = 10, comp = "AFLW")
afl_df

# A tibble: 379 × 70
   providerId      utcStartTime           status compSeason.shortName round.name
   <chr>           <chr>                  <chr>  <chr>                <chr>     
 1 CD_M20242641006 2024-11-01T08:15:00.0… CONCL… 2024 NAB AFLW Season Week 10   
 2 CD_M20242641006 2024-11-01T08:15:00.0… CONCL… 2024 NAB AFLW Season Week 10   
 3 CD_M20242641006 2024-11-01T08:15:00.0… CONCL… 2024 NAB AFLW Season Week 10   
 4 CD_M20242641006 2024-11-01T08:15:00.0… CONCL… 2024 NAB AFLW Season Week 10   
 5 CD_M20242641006 2024-11-01T08:15:00.0… CONCL… 2024 NAB AFLW Season Week 10   
 6 CD_M20242641006 2024-11-01T08:15:00.0… CONCL… 2024 NAB AFLW Season Week 10   
 7 CD_M20242641006 2024-11-01T08:15:00.0… CONCL… 2024 NAB AFLW Season Week 10   
 8 CD_M20242641006 2024-11-01T08:15:00.0… CONCL… 2024 NAB AFLW Season Week 10   
 9 CD_M20242641006 2024-11-01T08:15:00.0… CONCL… 2024 NAB AFLW Season Week 10   
10 CD_M20242641006 2024-11-01T08:15:00.0… CONCL… 2024 NAB AFLW Season Week 10   
# ℹ 369 more rows
# ℹ 65 more variables: round.roundNumber <int>, venue.name <chr>,
#   home.team.name <chr>, home.team.club.name <chr>, away.team.name <chr>,
#   away.team.club.name <chr>, player.jumperNumber <int>,
#   player.photoURL <chr>, player.player.position <chr>,
#   player.player.player.playerId <chr>, player.player.player.captain <lgl>,
#   player.player.player.playerJumperNumber <int>, …
…
We want to make a claim about the relationship between some outcome and some variables that we think are important determinants of that outcome. Here, we used the observed Dream Team points gained by a player and their disposal efficiency for round 10 in the 2024 season of AFLW to make a broader statement about the relationship between efficiency and Dream Team points. We are not actually interested in the specific relationship between these variables in round 10 of the 2024 season: we want to know whether a player’s efficiency is an important determinant of their Dream Team points generally.

In other words, we are inferring from a sample a general relationship. You can imagine that if we had a different sample, a linear regression model would have a different set of estimates for our intercept and coefficient. They would (hopefully) look very similar to the ones we found above, but they would be slightly different. For example, imagine that some of the random elements of a game of AFL were different: the wind blew in a different way, the crowd cheered a little louder, a player ran a little faster. These would change the game played in slight and random ways. A player might make a clanger instead of a clean disposal. The wind may blow an otherwise goal into a behind. Consequently, the players’ disposal efficiency would be slightly different. We would subsequently get different model estimates.

Let’s illustrate this. To be able to access this variation to illustrate my point, I am going to take pure random samples from our 379 players. Let’s take a completely random sample of 250 players from our data and fit our regression against that sample:

afl_sample_1 <- afl_df |> 
  sample_n(250) |>
  select(player.player.player.givenName, 
         player.player.player.surname,
         dreamTeamPoints,
         disposalEfficiency)
afl_sample_1

# A tibble: 250 × 4
   player.player.player.givenName player.player.player.surname dreamTeamPoints
   <chr>                          <chr>                                  <dbl>
 1 Bridie                         Hipwell                                   17
 2 Katherine                      Smith                                     39
 3 Julie                          O'Sullivan                                29
 4 Amy                            Franklin                                  30
 5 Taylah                         Gatt                                      41
 6 Brooke                         Lochland                                  56
 7 Ruby                           Sargent-Wilson                            51
 8 Rene                           Caris                                     14
 9 Montana                        Ham                                       46
10 Isabel                         Huntington                                49
# ℹ 240 more rows
# ℹ 1 more variable: disposalEfficiency <dbl>
…
Okay, so we got a different intercept and coefficient estimates than we got above. This is despite the fact that I took a pure random sample from the full set of players.

Let’s do this again. I will take a different random sample of 250 players and fit a regression for them:

afl_sample_2 <- afl_df |> 
  sample_n(250) |>
  select(player.player.player.givenName, 
         player.player.player.surname,
         dreamTeamPoints,
         disposalEfficiency)
afl_sample_2

# A tibble: 250 × 4
   player.player.player.givenName player.player.player.surname dreamTeamPoints
   <chr>                          <chr>                                  <dbl>
 1 Brooke                         Walker                                    48
 2 Abbie                          McKay                                      0
 3 Clara                          Fitzpatrick                               19
 4 Nat                            Exon                                      49
 5 Alana                          Porter                                    40
 6 Niamh                          Kelly                                     67
 7 Gabby                          Biedenweg-Webster                         11
 8 Emma                           Swanson                                   38
 9 Georgia                        Gee                                       91
10 Georgia                        Nanscawen                                 91
# ℹ 240 more rows
# ℹ 1 more variable: disposalEfficiency <dbl>
…
Again, we got a different set of coefficients. The only thing driving this difference is random chance. We took a random sample of the same number of players as above from the same population.

Let’s go again:

afl_sample_3 <- afl_df |> 
  sample_n(250) |>
  select(player.player.player.givenName, 
         player.player.player.surname,
         dreamTeamPoints,
         disposalEfficiency)
afl_sample_3

# A tibble: 250 × 4
   player.player.player.givenName player.player.player.surname dreamTeamPoints
   <chr>                          <chr>                                  <dbl>
 1 Joanne                         Cregg                                     30
 2 Sophie                         Alexander                                 51
 3 Ash                            Riddell                                  111
 4 Shanae                         Davison                                   18
 5 Brodee                         Mowbray                                   31
 6 Paige                          Trudgeon                                  38
 7 Mikayla                        Hyde                                      20
 8 Ella                           Roberts                                   78
 9 Daria                          Bannister                                 76
10 Hannah                         Priest                                    38
# ℹ 240 more rows
# ℹ 1 more variable: disposalEfficiency <dbl>
…
  model_results <- tibble(trial = i, model = tidy(m))
  
  return(model_results)
  
}

afl_regressions <- map(1:1000, afl_sample_regression, .progress = T) |> 
  bind_rows()

Now we can take a look at those different regression coefficients:

unnest(afl_regressions, model)

# A tibble: 2,000 × 6
   trial term               estimate std.error statistic  p.value
   <int> <chr>                 <dbl>     <dbl>     <dbl>    <dbl>
 1     1 (Intercept)         44.2       5.76        7.67 3.80e-13
 2     1 disposalEfficiency   0.103     0.0873      1.18 2.40e- 1
 3     2 (Intercept)         44.3       5.73        7.73 2.60e-13
 4     2 disposalEfficiency   0.108     0.0870      1.24 2.16e- 1
 5     3 (Intercept)         45.5       5.62        8.10 2.54e-14
 6     3 disposalEfficiency   0.112     0.0843      1.32 1.87e- 1
 7     4 (Intercept)         42.7       5.52        7.73 2.66e-13
 8     4 disposalEfficiency   0.104     0.0842      1.23 2.19e- 1
 9     5 (Intercept)         45.6       5.85        7.79 1.88e-13
10     5 disposalEfficiency   0.0923    0.0883      1.05 2.97e- 1
# ℹ 1,990 more rows
…
